_RB0 30 0 ABS 0
_RD0 40 0 ABS 0
__S0 800 0 ABS 0
__S1 75 0 ABS 0
__S2 0 0 ABS 0
__S3 0 0 ABS 0
__Hintentry 0 0 CODE 0
__Lintentry 0 0 CODE 0
_main 7B3 0 CODE 0
___sp 0 0 STACK 2
btemp 7E 0 ABS 0
start 0 0 CODE 0
reset_vec 0 0 CODE 0
wtemp0 7E 0 ABS 0
__Hconfig 2008 0 CONFIG 4
__Lconfig 0 0 CONFIG 4
__Hram 0 0 ABS 0
__Lram 0 0 ABS 0
_TRISB0 430 0 ABS 0
__Hfunctab 0 0 ENTRY 0
__Lfunctab 0 0 ENTRY 0
_TRISD0 440 0 ABS 0
__Hcommon 0 0 ABS 0
__Lcommon 0 0 ABS 0
__Heeprom_data 0 0 EEDATA 3
__Leeprom_data 0 0 EEDATA 3
___int_sp 0 0 STACK 2
__Habs1 0 0 ABS 0
__Labs1 0 0 ABS 0
__Hsfr0 0 0 ABS 0
__Lsfr0 0 0 ABS 0
__Hsfr1 0 0 ABS 0
__Lsfr1 0 0 ABS 0
__Hsfr2 0 0 ABS 0
__Lsfr2 0 0 ABS 0
__Hsfr3 0 0 ABS 0
__Lsfr3 0 0 ABS 0
___stackhi 0 0 ABS 0
__Hcode 0 0 ABS 0
__Lcode 0 0 ABS 0
__Hinit 0 0 CODE 0
__Linit 0 0 CODE 0
__end_of_main 7FC 0 CODE 0
__Htext 0 0 ABS 0
__Ltext 0 0 ABS 0
end_of_initialization 7FC 0 CODE 0
___stacklo 0 0 ABS 0
__Hstrings 0 0 ABS 0
__Lstrings 0 0 ABS 0
__Hbank0 0 0 ABS 0
__Lbank0 0 0 ABS 0
__Hbank1 0 0 ABS 0
__Lbank1 0 0 ABS 0
__Hbank2 0 0 ABS 0
__Lbank2 0 0 ABS 0
__Hbank3 0 0 ABS 0
__Lbank3 0 0 ABS 0
___latbits 2 0 ABS 0
__Hpowerup 0 0 CODE 0
__Lpowerup 0 0 CODE 0
__Hclrtext 0 0 ABS 0
__Lclrtext 0 0 ABS 0
__end_of__initialization 7FC 0 CODE 0
__Hstack 0 0 STACK 2
__Lstack 0 0 STACK 2
__Hspace_0 800 0 ABS 0
__Lspace_0 0 0 ABS 0
__Hspace_1 75 0 ABS 0
__Lspace_1 0 0 ABS 0
__Hspace_2 0 0 ABS 0
__Lspace_2 0 0 ABS 0
__Hcinit 800 0 CODE 0
__Lcinit 7FC 0 CODE 0
__Hspace_3 0 0 ABS 0
__Lspace_3 0 0 ABS 0
main@aux 73 0 COMMON 1
__size_of_main 0 0 ABS 0
__Hspace_4 400F 0 ABS 0
__Lspace_4 0 0 ABS 0
__Hend_init 3 0 CODE 0
__Lend_init 0 0 CODE 0
__Hreset_vec 0 0 CODE 0
__Lreset_vec 0 0 CODE 0
intlevel0 0 0 ENTRY 0
intlevel1 0 0 ENTRY 0
intlevel2 0 0 ENTRY 0
intlevel3 0 0 ENTRY 0
intlevel4 0 0 ENTRY 0
intlevel5 0 0 ENTRY 0
__HcstackCOMMON 0 0 ABS 0
__LcstackCOMMON 0 0 ABS 0
__pcstackCOMMON 70 0 COMMON 1
start_initialization 7FC 0 CODE 0
__Hmaintext 0 0 ABS 0
__Lmaintext 0 0 ABS 0
__pmaintext 7B3 0 CODE 0
__initialization 7FC 0 CODE 0
%segments
reset_vec 0 5 CODE 0 0
cinit FF8 FFF CODE FF8 0
cstackCOMMON 70 74 COMMON 70 1
maintext F66 FF7 CODE F66 0
%locals
dist/default/production\Ejercicio_02.X.production.o
C:\Users\diego\AppData\Local\Temp\xcAs2mc.s
431 7FC 0 CODE 0
434 7FC 0 CODE 0
440 7FC 0 CODE 0
442 7FC 0 CODE 0
443 7FD 0 CODE 0
main.c
18 7B3 0 CODE 0
20 7B3 0 CODE 0
22 7B5 0 CODE 0
23 7B8 0 CODE 0
25 7B9 0 CODE 0
29 7BC 0 CODE 0
31 7C0 0 CODE 0
33 7CD 0 CODE 0
35 7D3 0 CODE 0
36 7E1 0 CODE 0
40 7EE 0 CODE 0
